<svg version="1.1" id="Layer_1" xmlns="http://www.w3.org/2000/svg" xmlns:xlink="http://www.w3.org/1999/xlink" x="0px"
    y="0px" viewBox="0 0 70 52" style="enable-background:new 0 0 70 52;" xml:space="preserve">
    <g>
        <path class="st0" d="M67.8,49.8V15.2H54.6c-0.8-5.5-7.8-9.8-16.4-9.8c-8.5,0-15.5,4.3-16.4,9.8H8.8v34.7H4.4V5.4
                      c0-1.8,1.5-3.2,3.3-3.2c1.5,0,2.7,1,3.2,2.3C9,5,7.7,6.7,7.7,8.7v2.2h8.8V8.7c0-2.1-1.4-3.7-3.4-4.2C12.6,2,10.3,0,7.7,0
                      c-3,0-5.5,2.4-5.5,5.4v44.4H0V52h70v-2.2H67.8z M12,6.5c1.2,0,2.2,1,2.2,2.2H9.8C9.8,7.5,10.8,6.5,12,6.5z M43.8,49.8H32.8V30.3
                      h10.9V49.8z M65.6,49.8H45.9V28.2H30.6v21.7H10.9V26h54.7V49.8z M65.6,23.8H10.9v-6.5h13.3l-0.2-1.1c0.1-4.8,6.4-8.6,14.2-8.6
                      c7.8,0,14.1,3.8,14.2,8.5l-0.4,1.2h13.5V23.8z"></path>
        <path class="st0" d="M62,28H49v19h13V28z M59.8,44.9h-8.7v-2.1h8.7V44.9z M59.8,40.7h-8.7V30.1h8.7V40.7z"></path>
        <path class="st0" d="M26,28H13v19h13V28z M23.8,44.9h-8.7v-2.1h8.7V44.9z M23.8,40.7h-8.7V30.1h8.7V40.7z"></path>
        <rect x="40" y="37" class="st0" width="2" height="7"></rect>
        <path class="st0" d="M38,10c-6.2,0-11,2.6-11,6s4.8,6,11,6s11-2.6,11-6S44.2,10,38,10z M38,19.8c-5.2,0-8.8-2-8.8-3.8
                      s3.6-3.8,8.8-3.8s8.8,2,8.8,3.8S43.2,19.8,38,19.8z"></path>
    </g>
</svg>